id,name,model_id:id,group_id:id,perm_read,perm_write,perm_create,perm_unlink
access_golf_online_ph_golf_online_ph,golf_online_ph.golf_online_ph,model_goph_tournament,,1,0,0,0
access_golf_online_ph_golf_online_ph,golf_online_ph.golf_online_ph,model_goph_course,,1,0,0,0

goph_tournament,tournament_setup,model_goph_tournament,tournament_admin_group,1,1,1,1
goph_tournament_course,tournament_course,model_goph_course,tournament_admin_group,1,0,0,0
goph_tournament_coursehole,tournament_course_hole,model_goph_course_holes,tournament_admin_group,1,0,0,0
goph_tournament_golfteam,tournament_golfteam,model_goph_golf_team,tournament_admin_group,1,1,1,1
goph_tournament_teamrounds,tournament_teamrounds,model_goph_team_rounds,tournament_admin_group,1,1,1,1
goph_tournament_round,tournament_round,model_goph_tournament_rounds,tournament_admin_group,1,1,1,1
goph_tournament_classification,tournament_classification,model_goph_classification,tournament_admin_group,1,1,1,1
goph_tournament_golfplayer,tournament_golfplayer,model_goph_golf_player,tournament_admin_group,1,1,1,1
goph_tournament_registered_player,tournament_registered_player,model_goph_registered_player,tournament_admin_group,1,1,1,1
goph_tournament_eligible_division,tournament_eligible_division,model_goph_eligible_division,tournament_admin_group,1,1,1,1
goph_tournament_tournament_eligible_division,tournament_tournament_eligible_division,model_goph_eligible_division_instance,tournament_admin_group,1,1,1,1
goph_tournament_point_system,tournament_point_system,model_goph_point_system_instance,tournament_admin_group,1,1,1,1
goph_flight_players,flight_players,model_goph_tournament_flight_schedule,tournament_admin_group,1,1,1,1
goph_tournament_flights,tournament_flights,model_goph_tournament_flights,tournament_admin_group,1,1,1,1
goph_player_score_card,player_score_card,model_goph_player_score_card,tournament_admin_group,1,1,1,1
goph_first_half_score_card,first_half_score_card,model_goph_front_nine_default,tournament_admin_group,1,1,1,1
goph_second_half_score_card,second_half_score_card,model_goph_back_nine_default,tournament_admin_group,1,1,1,1
goph_first_half_score_card_system_36,first_half_score_card_system_36,model_goph_front_nine_system_36,tournament_admin_group,1,1,1,1
goph_second_half_score_card_system_36,second_half_score_card_system_36,model_goph_back_nine_system_36,tournament_admin_group,1,1,1,1
goph_first_half_score_card_stroke_play,first_half_score_card_stroke_play,model_goph_front_nine_stroke_play,tournament_admin_group,1,1,1,1
goph_second_half_score_card_stroke_play,second_half_score_card_stroke_play,model_goph_back_nine_stroke_play,tournament_admin_group,1,1,1,1

goph_tournament_read,tournament_setup_read,model_goph_tournament,,1,0,0,0
goph_tournament_course_read,tournament_course_read,model_goph_course,,1,0,0,0
goph_tournament_coursehole_read,tournament_course_hole_read,model_goph_course_holes,,1,0,0,0
goph_tournament_golfteam_read,tournament_golfteam_read,model_goph_golf_team,,1,1,0,0
goph_tournament_teamrounds_read,tournament_teamrounds_read,model_goph_team_rounds,,1,1,0,0
goph_tournament_round_read,tournament_round_read,model_goph_tournament_rounds,,1,0,0,0
goph_tournament_classification_read,tournament_classification_read,model_goph_classification,,1,0,0,0
goph_tournament_golfplayer_read,tournament_golfplayer_read,model_goph_golf_player,,1,0,0,0
goph_tournament_registered_player_read,tournament_registered_player_read,model_goph_registered_player,,1,1,0,0
goph_tournament_eligible_division_read,tournament_eligible_division_read,model_goph_eligible_division,,1,0,0,0
goph_tournament_tournament_eligible_division_read,tournament_tournament_eligible_division_read,model_goph_eligible_division_instance,,1,0,0,0
goph_tournament_point_system_read,tournament_point_system_read,model_goph_point_system_instance,,1,0,0,0
goph_flight_players_read,flight_players_read,model_goph_tournament_flight_schedule,,1,0,0,0
goph_tournament_flights_read,tournament_flights_read,model_goph_tournament_flights,,1,0,0,0
goph_player_score_card_read,player_score_card_read,model_goph_player_score_card,,1,0,0,0
goph_first_half_score_card_read,first_half_score_card_read,model_goph_front_nine_default,,1,0,0,0
goph_second_half_score_card_read,second_half_score_card_read,model_goph_back_nine_default,,1,0,0,0
goph_first_half_score_card_system_36_read,first_half_score_card_system_36_read,model_goph_front_nine_system_36,,1,0,0,0
goph_second_half_score_card_system_36_read,second_half_score_card_system_36_read,model_goph_back_nine_system_36,,1,0,0,0
goph_first_half_score_card_stroke_play_read,first_half_score_card_stroke_play_read,model_goph_front_nine_stroke_play,,1,0,0,0
goph_second_half_score_card_stroke_play_read,second_half_score_card_stroke_play_read,model_goph_back_nine_stroke_play,,1,0,0,0